\relax 
\@writefile{toc}{\contentsline {section}{\numberline {1}Problem 1}{1}\protected@file@percent }
\@writefile{toc}{\contentsline {section}{\numberline {2}Problem 2}{1}\protected@file@percent }
\@writefile{toc}{\contentsline {section}{\numberline {3}Problem 3}{2}\protected@file@percent }
\@writefile{toc}{\contentsline {section}{\numberline {4}Problem 4}{2}\protected@file@percent }
\@writefile{toc}{\contentsline {section}{\numberline {5}Problem 5}{2}\protected@file@percent }
