PWD /Users/Vincent/Desktop/WorkingDirectory/CS539_Game_Theory/Homework2.5
INPUT /usr/local/texlive/2019/texmf.cnf
INPUT /usr/local/texlive/2019/texmf-dist/web2c/texmf.cnf
INPUT /usr/local/texlive/2019/texmf-var/web2c/pdftex/pdflatex.fmt
INPUT Homework2_5.tex
OUTPUT Homework2_5.log
INPUT /usr/local/texlive/2019/texmf-dist/tex/latex/base/article.cls
INPUT /usr/local/texlive/2019/texmf-dist/tex/latex/base/article.cls
INPUT /usr/local/texlive/2019/texmf-dist/tex/latex/base/size10.clo
INPUT /usr/local/texlive/2019/texmf-dist/tex/latex/base/size10.clo
INPUT /usr/local/texlive/2019/texmf-dist/tex/latex/amsmath/amsmath.sty
INPUT /usr/local/texlive/2019/texmf-dist/tex/latex/amsmath/amsmath.sty
INPUT /usr/local/texlive/2019/texmf-dist/tex/latex/amsmath/amstext.sty
INPUT /usr/local/texlive/2019/texmf-dist/tex/latex/amsmath/amstext.sty
INPUT /usr/local/texlive/2019/texmf-dist/tex/latex/amsmath/amsgen.sty
INPUT /usr/local/texlive/2019/texmf-dist/tex/latex/amsmath/amsgen.sty
INPUT /usr/local/texlive/2019/texmf-dist/tex/latex/amsmath/amsbsy.sty
INPUT /usr/local/texlive/2019/texmf-dist/tex/latex/amsmath/amsbsy.sty
INPUT /usr/local/texlive/2019/texmf-dist/tex/latex/amsmath/amsopn.sty
INPUT /usr/local/texlive/2019/texmf-dist/tex/latex/amsmath/amsopn.sty
INPUT Homework2_5.aux
INPUT Homework2_5.aux
OUTPUT Homework2_5.aux
INPUT /usr/local/texlive/2019/texmf-dist/fonts/map/fontname/texfonts.map
INPUT /usr/local/texlive/2019/texmf-dist/fonts/tfm/public/cm/cmr17.tfm
INPUT /usr/local/texlive/2019/texmf-dist/fonts/tfm/public/cm/cmr12.tfm
INPUT /usr/local/texlive/2019/texmf-dist/fonts/tfm/public/cm/cmr8.tfm
INPUT /usr/local/texlive/2019/texmf-dist/fonts/tfm/public/cm/cmr6.tfm
INPUT /usr/local/texlive/2019/texmf-dist/fonts/tfm/public/cm/cmmi12.tfm
INPUT /usr/local/texlive/2019/texmf-dist/fonts/tfm/public/cm/cmmi8.tfm
INPUT /usr/local/texlive/2019/texmf-dist/fonts/tfm/public/cm/cmmi6.tfm
INPUT /usr/local/texlive/2019/texmf-dist/fonts/tfm/public/cm/cmsy10.tfm
INPUT /usr/local/texlive/2019/texmf-dist/fonts/tfm/public/cm/cmsy8.tfm
INPUT /usr/local/texlive/2019/texmf-dist/fonts/tfm/public/cm/cmsy6.tfm
INPUT /usr/local/texlive/2019/texmf-dist/fonts/tfm/public/cm/cmex10.tfm
INPUT /usr/local/texlive/2019/texmf-dist/fonts/tfm/public/amsfonts/cmextra/cmex8.tfm
INPUT /usr/local/texlive/2019/texmf-dist/fonts/tfm/public/amsfonts/cmextra/cmex7.tfm
INPUT /usr/local/texlive/2019/texmf-dist/fonts/tfm/public/cm/cmr12.tfm
INPUT /usr/local/texlive/2019/texmf-dist/fonts/tfm/public/cm/cmbx12.tfm
INPUT /usr/local/texlive/2019/texmf-dist/fonts/tfm/public/amsfonts/cmextra/cmex7.tfm
INPUT /usr/local/texlive/2019/texmf-dist/fonts/tfm/public/amsfonts/cmextra/cmex7.tfm
OUTPUT Homework2_5.pdf
INPUT /usr/local/texlive/2019/texmf-var/fonts/map/pdftex/updmap/pdftex.map
INPUT Homework2_5.aux
INPUT /usr/local/texlive/2019/texmf-dist/fonts/type1/public/amsfonts/cm/cmbx12.pfb
INPUT /usr/local/texlive/2019/texmf-dist/fonts/type1/public/amsfonts/cm/cmmi10.pfb
INPUT /usr/local/texlive/2019/texmf-dist/fonts/type1/public/amsfonts/cm/cmmi7.pfb
INPUT /usr/local/texlive/2019/texmf-dist/fonts/type1/public/amsfonts/cm/cmr10.pfb
INPUT /usr/local/texlive/2019/texmf-dist/fonts/type1/public/amsfonts/cm/cmr12.pfb
INPUT /usr/local/texlive/2019/texmf-dist/fonts/type1/public/amsfonts/cm/cmr17.pfb
INPUT /usr/local/texlive/2019/texmf-dist/fonts/type1/public/amsfonts/cm/cmr5.pfb
INPUT /usr/local/texlive/2019/texmf-dist/fonts/type1/public/amsfonts/cm/cmr7.pfb
INPUT /usr/local/texlive/2019/texmf-dist/fonts/type1/public/amsfonts/cm/cmsy10.pfb
INPUT /usr/local/texlive/2019/texmf-dist/fonts/type1/public/amsfonts/cm/cmsy7.pfb
