\relax 
\@writefile{toc}{\contentsline {section}{\numberline {1}Question 1}{1}\protected@file@percent }
\@writefile{toc}{\contentsline {section}{\numberline {2}Question 2}{2}\protected@file@percent }
\@writefile{toc}{\contentsline {section}{\numberline {3}Question 3}{2}\protected@file@percent }
\@writefile{toc}{\contentsline {section}{\numberline {4}Question 4}{3}\protected@file@percent }
\@writefile{toc}{\contentsline {section}{\numberline {5}Question 5}{3}\protected@file@percent }
